{
  "version": "1.0.0-*",
  "buildOptions": {
    "debugType": "portable",
    "emitEntryPoint": true,
    "copyToOutput":[
      "appsettings.json"
    ]
  },
  "dependencies": {
        "Microsoft.NETCore.App": "1.1.0",
        "Microsoft.AspNetCore.Routing":"1.1.0",
        "Microsoft.AspNetCore.Server.Kestrel":"1.1.0",
        "Microsoft.Extensions.Configuration.Json": "1.1.0",
        "Microsoft.Extensions.DependencyInjection": "1.1.0"
  },
  "frameworks": {
    "netcoreapp1.0": {
      "imports": "dnxcore50"      
    }
  },
  "runtimes": {
        "debian.8-x64": {},
        "ubuntu.16.04-x64": {},
        "ubuntu.14.04-x64": {},
        "win7-x64": {},
        "win10-x64": {}
}
}
